<svg width="132" height="316" viewBox="0 0 132 316" fill="none" xmlns="http://www.w3.org/2000/svg">
<path d="M205.5 194.5C219.202 165.473 243.028 134.27 231.368 101.655C188.11 -18.6599 62.1521 -40.9492 11.276 82.4433C-1.62256 113.765 -5.05844 149.548 9.50174 180.633C24.0619 211.718 48.5354 240.472 70.7418 262.142C92.9481 283.812 121.985 332.559 177.985 310C210.668 296.834 188.293 230.975 205.5 194.5Z" fill="#388172"/>
</svg>
