<svg width="12" height="10" viewBox="0 0 12 10" fill="none" xmlns="http://www.w3.org/2000/svg">
<path d="M8.78129 5.66667L1.33329 5.66667C0.965103 5.66667 0.666626 5.3682 0.666626 5.00001C0.666626 4.63182 0.965103 4.33334 1.33329 4.33334L8.78129 4.33334L5.67663 1.22867C5.41632 0.968363 5.41632 0.546317 5.67663 0.286007C5.93694 0.0256969 6.35898 0.025697 6.61929 0.286007L10.8619 4.5286C11.1222 4.78895 11.1222 5.21106 10.8619 5.47141L6.61929 9.71401C6.35898 9.97432 5.93694 9.97432 5.67663 9.71401C5.41632 9.4537 5.41632 9.03165 5.67663 8.77134L8.78129 5.66667Z" fill="white"/>
</svg>
